Conductivímetro/Osciloscopio/Inversor/A0001M.CSV

Memory Length,512,
Trigger Level,0.000E+00,
Source,FFT,
Vertical Units,dB,
Vertical Scale,2.000E+01,
Vertical Position,0.000000E+00,
Horizontal Units,Hz,
Horizontal Scale,4.000E+04,
Horizontal Position,0.000E+00,
Horizontal Mode,Main,
Sampling Period,1.600E+03,
Firmware,V1.09,
Time,08-Jul-17  1:31,
Waveform Data,
-54,
-47,
-48,
-46,
-48,
17,
-43,
-54,
-51,
-48,
-39,
-50,
-51,
-46,
-42,
-31,
-45,
-44,
-42,
-39,
-39,
-40,
-38,
-38,
-36,
-32,
-38,
-38,
-36,
-37,
-36,
-38,
-36,
-35,
-36,
-35,
-36,
-36,
-37,
-37,
-38,
-39,
-37,
-38,
-38,
-35,
-37,
-41,
-39,
-42,
-43,
-40,
-42,
-42,
-44,
-44,
-45,
-48,
-50,
-55,
-51,
-50,
-55,
-51,
-53,
-53,
-51,
-49,
-49,
-47,
-48,
-46,
-43,
-45,
-43,
-42,
-41,
-42,
-42,
-42,
-42,
-42,
-43,
-41,
-42,
-40,
-42,
-43,
-43,
-42,
-44,
-44,
-47,
-45,
-49,
-48,
-44,
-49,
-45,
-46,
-46,
-51,
-49,
-54,
-53,
-51,
-56,
-51,
-48,
-51,
-47,
-46,
-47,
-49,
-45,
-45,
-45,
-46,
-46,
-46,
-46,
-46,
-45,
-45,
-43,
-44,
-46,
-49,
-46,
-44,
-47,
-46,
-47,
-49,
-45,
-47,
-51,
-48,
-53,
-54,
-49,
-51,
-50,
-53,
-47,
-56,
-56,
-49,
-53,
-54,
-53,
-50,
-51,
-51,
-51,
-51,
-49,
-49,
-50,
-47,
-47,
-47,
-48,
-47,
-48,
-47,
-48,
-51,
-49,
-49,
-49,
-47,
-53,
-51,
-50,
-53,
-53,
-51,
-54,
-54,
-54,
-53,
-51,
-51,
-55,
-55,
-54,
-56,
-61,
-55,
-60,
-50,
-58,
-53,
-54,
-58,
-51,
-61,
-51,
-47,
-49,
-53,
-55,
-51,
-49,
-49,
-51,
-51,
-57,
-57,
-46,
-54,
-56,
-61,
-53,
-56,
-58,
-60,
-51,
-60,
-55,
-58,
-51,
-61,
-60,
-65,
-58,
-60,
-56,
-69,
-61,
-60,
-61,
-58,
-65,
-69,
-58,
-55,
-60,
-54,
-56,
-65,
-53,
-58,
-55,
-58,
-55,
-60,
-61,
-56,
-55,
-54,
-56,
-65,
-55,
-65,
-58,
-65,
-56,
-60,
-55,
-60,
-61,
-65,
-60,
-69,
-60,
-69,
-69,
-58,
-56,
-69,
-56,
-54,
-65,
-48,
-60,
-58,
-69,
-60,
-65,
-60,
-58,
-60,
-60,
-61,
-55,
-69,
-60,
-65,
-53,
-56,
-60,
-61,
-61,
-69,
-65,
-65,
-56,
-60,
-69,
-65,
-56,
-56,
-60,
-58,
-69,
-53,
-55,
-58,
-60,
-57,
-60,
-51,
-55,
-55,
-60,
-60,
-65,
-65,
-58,
-55,
-56,
-61,
-65,
-61,
-56,
-65,
-56,
-56,
-56,
-54,
-61,
-61,
-58,
-55,
-55,
-58,
-55,
-53,
-56,
-53,
-54,
-54,
-58,
-51,
-51,
-53,
-50,
-53,
-50,
-58,
-57,
-57,
-51,
-56,
-50,
-50,
-53,
-57,
-53,
-51,
-51,
-54,
-54,
-55,
-69,
-53,
-56,
-54,
-54,
-56,
-61,
-54,
-54,
-50,
-47,
-53,
-51,
-51,
-51,
-51,
-49,
-51,
-53,
-47,
-51,
-51,
-53,
-51,
-54,
-47,
-49,
-49,
-51,
-51,
-55,
-53,
-55,
-49,
-50,
-54,
-54,
-49,
-54,
-49,
-51,
-51,
-51,
-49,
-54,
-51,
-54,
-54,
-51,
-48,
-55,
-49,
-50,
-51,
-47,
-51,
-48,
-51,
-49,
-46,
-49,
-53,
-50,
-49,
-48,
-49,
-48,
-49,
-49,
-47,
-51,
-50,
-48,
-50,
-49,
-49,
-49,
-51,
-47,
-49,
-50,
-48,
-51,
-50,
-51,
-51,
-49,
-48,
-47,
-48,
-49,
-47,
-48,
-48,
-51,
-48,
-46,
-47,
-47,
-47,
-47,
-50,
-47,
-46,
-49,
-46,
-46,
-48,
-47,
-51,
-49,
-51,
-46,
-49,
-49,
-49,
-48,
-49,
-48,
-47,
-50,
-49,
-49,
-50,
-51,
-49,
-47,
-50,
-48,
-49,
-47,
-46,
-46,
-46,
-46,
-46,
-45,
-46,
-45,
-45,
-44,
-31,
-45,
-44,
-44,
-45,
