Conductivímetro/Osciloscopio/rectificador+pasabajos/A0000M.CSV

Memory Length,512,
Trigger Level,0.000E+00,
Source,FFT,
Vertical Units,dB,
Vertical Scale,2.000E+01,
Vertical Position,0.000000E+00,
Horizontal Units,Hz,
Horizontal Scale,4.000E+04,
Horizontal Position,0.000E+00,
Horizontal Mode,Main,
Sampling Period,1.600E+03,
Firmware,V1.09,
Time,08-Jul-17  1:39,
Waveform Data,
20,
-19,
-19,
-19,
-19,
-19,
-20,
-20,
-20,
-20,
-20,
-21,
-21,
-22,
-22,
-22,
-22,
-23,
-24,
-25,
-25,
-26,
-26,
-28,
-28,
-29,
-31,
-31,
-33,
-33,
-36,
-39,
-38,
-43,
-44,
-56,
-60,
-51,
-65,
-45,
-51,
-45,
-41,
-40,
-40,
-37,
-39,
-37,
-37,
-34,
-36,
-36,
-36,
-36,
-36,
-35,
-36,
-38,
-36,
-36,
-37,
-38,
-40,
-39,
-40,
-41,
-42,
-48,
-44,
-51,
-53,
-54,
-61,
-51,
-65,
-69,
-69,
-53,
-54,
-51,
-46,
-46,
-42,
-46,
-44,
-43,
-41,
-43,
-41,
-43,
-43,
-44,
-44,
-42,
-43,
-43,
-43,
-42,
-42,
-43,
-43,
-44,
-46,
-45,
-50,
-54,
-51,
-55,
-56,
-55,
-53,
-60,
-69,
-65,
-69,
-60,
-58,
-57,
-51,
-56,
-51,
-53,
-49,
-49,
-47,
-46,
-47,
-45,
-46,
-48,
-44,
-47,
-48,
-46,
-46,
-47,
-45,
-51,
-47,
-51,
-51,
-49,
-53,
-56,
-56,
-55,
-55,
-56,
-61,
-65,
-69,
-69,
-61,
-60,
-69,
-57,
-58,
-53,
-58,
-60,
-53,
-51,
-47,
-50,
-51,
-54,
-49,
-49,
-54,
-51,
-51,
-54,
-51,
-55,
-50,
-51,
-53,
-51,
-53,
-54,
-57,
-58,
-69,
-61,
-61,
-69,
-56,
-69,
-69,
-69,
-69,
-65,
-58,
-69,
-60,
-56,
-56,
-55,
-61,
-56,
-57,
-51,
-57,
-53,
-51,
-57,
-51,
-60,
-55,
-48,
-53,
-56,
-69,
-65,
-61,
-56,
-65,
-60,
-69,
-69,
-61,
-65,
-65,
-61,
-56,
-51,
-69,
-51,
-69,
-58,
-61,
-50,
-55,
-58,
-58,
-55,
-54,
-51,
-58,
-58,
-55,
-55,
-50,
-56,
-56,
-58,
-60,
-56,
-60,
-55,
-55,
-65,
-69,
-69,
-65,
-53,
-69,
-58,
-60,
-55,
-69,
-65,
-53,
-53,
-54,
-56,
-58,
-57,
-51,
-51,
-49,
-51,
-54,
-54,
-53,
-47,
-49,
-50,
-53,
-50,
-49,
-48,
-51,
-54,
-60,
-51,
-60,
-50,
-56,
-65,
-54,
-54,
-56,
-51,
-69,
-51,
-61,
-65,
-51,
-55,
-55,
-55,
-53,
-48,
-53,
-51,
-49,
-51,
-49,
-45,
-51,
-46,
-50,
-48,
-50,
-46,
-47,
-49,
-47,
-51,
-48,
-54,
-53,
-53,
-51,
-53,
-50,
-53,
-49,
-54,
-48,
-51,
-56,
-54,
-53,
-61,
-54,
-55,
-53,
-49,
-55,
-51,
-49,
-49,
-47,
-49,
-48,
-44,
-50,
-50,
-47,
-47,
-47,
-44,
-45,
-51,
-44,
-45,
-46,
-46,
-48,
-46,
-49,
-47,
-48,
-47,
-47,
-49,
-50,
-50,
-50,
-50,
-50,
-48,
-51,
-45,
-48,
-51,
-49,
-46,
-46,
-48,
-46,
-46,
-48,
-48,
-45,
-46,
-47,
-45,
-44,
-43,
-44,
-44,
-46,
-45,
-45,
-44,
-44,
-43,
-46,
-47,
-45,
-45,
-48,
-46,
-46,
-51,
-50,
-48,
-49,
-53,
-48,
-49,
-48,
-46,
-46,
-47,
-44,
-45,
-46,
-46,
-45,
-44,
-44,
-45,
-44,
-43,
-43,
-43,
-45,
-43,
-43,
-44,
-44,
-45,
-44,
-45,
-46,
-42,
-44,
-46,
-46,
-46,
-45,
-46,
-45,
-47,
-46,
-46,
-47,
-46,
-46,
-46,
-46,
-48,
-45,
-46,
-47,
-46,
-44,
-45,
-45,
-45,
-43,
-44,
-44,
-43,
-43,
-42,
-43,
-43,
-44,
-44,
-43,
-44,
-44,
-44,
-44,
-43,
-44,
-44,
-44,
-45,
-45,
-44,
-44,
-45,
-46,
-46,
-46,
-47,
-46,
-46,
-45,
-45,
-47,
-46,
-45,
-45,
-45,
-43,
-45,
-43,
-43,
-44,
-45,
-43,
-43,
-43,
-42,
-42,
